[
    {
        "text": "<<locator-view baseTitle:\"TableOfContents\">>",
        "title": "$:/fk/tw-base/LocatorNavigationTab",
        "tags": "$:/tags/SideBar",
        "list-after": "TableOfContents",
        "caption": "Locator"
    },
    {
        "title": "$:/fk/tw-base/LocatorSearchTab",
        "text": "<<locator-search>>",
        "caption": "Locator",
        "tags": "$:/tags/SearchResults",
        "description": "Locator: search replacement tab"
    },
    {
     	"title": "$:/fk/tw-base/LocatorSearchFieldsTab",
        "text": "<<locator-fields>>",
        "caption": "Fields",
        "tags":	"$:/tags/SearchResults",
        "description": "Locator: search fields tab"
    }
]
