[
    {
        "text":"true",
        "tags":"",
        "title":"$:/config/markdown/typographer"
    },
    {
        "text":"„“‚‘",
        "tags":"",
        "title":"$:/config/markdown/quotes"
    }
]
