[
    {
     	"title": "$:/config/EditToolbarButtons/Visibility/$:/plugins/kookma/trashbin/ui/toolbar-button",
        "text": "hide",
        "description": "Trashbin: hide edit tiddler trash button"
    },
    {
        "title": "$:/config/EditToolbarButtons/Visibility/$:/core/ui/Buttons/delete",
        "text": "hide",
     	"description": "hide edit tiddler delete button"
    }
]
